---
http_interactions:
- request:
    method: get
    uri: https://api.pexels.com/v1/search?query=Rabbit
    body:
      encoding: US-ASCII
      string: ''
    headers:
      Authorization:
      - "<PEXEL_API_KEY>"
      User-Agent:
      - Faraday v2.12.0
      Accept-Encoding:
      - gzip;q=1.0,deflate;q=0.6,identity;q=0.3
      Accept:
      - "*/*"
  response:
    status:
      code: 200
      message: OK
    headers:
      Date:
      - Tue, 26 Nov 2024 04:05:21 GMT
      Content-Type:
      - application/json; charset=utf-8
      Transfer-Encoding:
      - chunked
      Connection:
      - keep-alive
      Cf-Ray:
      - 8e86ffe7ef89e64f-DEN
      Cf-Cache-Status:
      - MISS
      Access-Control-Allow-Origin:
      - "*"
      Cache-Control:
      - max-age=86400
      Etag:
      - W/"ee98f0e42c07ac0deb74670461d939cf"
      Expires:
      - Wed, 27 Nov 2024 04:05:21 GMT
      Access-Control-Allow-Headers:
      - Accept, Content-Type, Content-Length, Accept-Encoding, Authorization, User-Agent
      X-Frame-Options:
      - SAMEORIGIN
      X-Ratelimit-Limit:
      - '25000'
      X-Ratelimit-Remaining:
      - '21459'
      X-Ratelimit-Reset:
      - '1733358131'
      X-Request-Id:
      - 81fb32da-769b-4cf3-b56c-abf3fbb4de13
      X-Runtime:
      - '0.089461'
      Set-Cookie:
      - __cf_bm=66CAf_14iXq.9_.g8MFpLzUPTxffsrdYTWkgKBLqu5U-1732593921-1.0.1.1-LHLuxo4z3FuywNfk6v5fNz6hADFQaPuHk28OCX.8EXkGjolLMx5o75WbMk2catdolTRPtNUeYea4Dg7kQNYEPA;
        path=/; expires=Tue, 26-Nov-24 04:35:21 GMT; domain=.pexels.com; HttpOnly;
        Secure; SameSite=None
      - _cfuvid=7LY3eYXwCRwyXEA2F8qI92sMp7XX5tcRzvkQGEjZt7Y-1732593921515-0.0.1.1-604800000;
        path=/; domain=.pexels.com; HttpOnly; Secure; SameSite=None
      Vary:
      - Accept-Encoding
      Server:
      - cloudflare
      Alt-Svc:
      - h3=":443"; ma=86400
    body:
      encoding: UTF-8
      string: '{"page":1,"per_page":15,"photos":[{"id":6618592,"width":3024,"height":4032,"url":"https://www.pexels.com/photo/crop-woman-with-rabbit-and-christmas-decorations-6618592/","photographer":"Mariam
        Antadze","photographer_url":"https://www.pexels.com/@sunsetoned","photographer_id":3838865,"avg_color":"#8B857F","src":{"original":"https://images.pexels.com/photos/6618592/pexels-photo-6618592.jpeg","large2x":"https://images.pexels.com/photos/6618592/pexels-photo-6618592.jpeg?auto=compress\u0026cs=tinysrgb\u0026dpr=2\u0026h=650\u0026w=940","large":"https://images.pexels.com/photos/6618592/pexels-photo-6618592.jpeg?auto=compress\u0026cs=tinysrgb\u0026h=650\u0026w=940","medium":"https://images.pexels.com/photos/6618592/pexels-photo-6618592.jpeg?auto=compress\u0026cs=tinysrgb\u0026h=350","small":"https://images.pexels.com/photos/6618592/pexels-photo-6618592.jpeg?auto=compress\u0026cs=tinysrgb\u0026h=130","portrait":"https://images.pexels.com/photos/6618592/pexels-photo-6618592.jpeg?auto=compress\u0026cs=tinysrgb\u0026fit=crop\u0026h=1200\u0026w=800","landscape":"https://images.pexels.com/photos/6618592/pexels-photo-6618592.jpeg?auto=compress\u0026cs=tinysrgb\u0026fit=crop\u0026h=627\u0026w=1200","tiny":"https://images.pexels.com/photos/6618592/pexels-photo-6618592.jpeg?auto=compress\u0026cs=tinysrgb\u0026dpr=1\u0026fit=crop\u0026h=200\u0026w=280"},"liked":false,"alt":"Top
        view of unrecognizable female in sweater sitting with cute rabbit during holiday
        on crumpled textile with Christmas baubles and tinsel"},{"id":6845638,"width":5478,"height":3652,"url":"https://www.pexels.com/photo/a-person-holding-a-white-rabbit-6845638/","photographer":"Tima
        Miroshnichenko","photographer_url":"https://www.pexels.com/@tima-miroshnichenko","photographer_id":3088726,"avg_color":"#A49A92","src":{"original":"https://images.pexels.com/photos/6845638/pexels-photo-6845638.jpeg","large2x":"https://images.pexels.com/photos/6845638/pexels-photo-6845638.jpeg?auto=compress\u0026cs=tinysrgb\u0026dpr=2\u0026h=650\u0026w=940","large":"https://images.pexels.com/photos/6845638/pexels-photo-6845638.jpeg?auto=compress\u0026cs=tinysrgb\u0026h=650\u0026w=940","medium":"https://images.pexels.com/photos/6845638/pexels-photo-6845638.jpeg?auto=compress\u0026cs=tinysrgb\u0026h=350","small":"https://images.pexels.com/photos/6845638/pexels-photo-6845638.jpeg?auto=compress\u0026cs=tinysrgb\u0026h=130","portrait":"https://images.pexels.com/photos/6845638/pexels-photo-6845638.jpeg?auto=compress\u0026cs=tinysrgb\u0026fit=crop\u0026h=1200\u0026w=800","landscape":"https://images.pexels.com/photos/6845638/pexels-photo-6845638.jpeg?auto=compress\u0026cs=tinysrgb\u0026fit=crop\u0026h=627\u0026w=1200","tiny":"https://images.pexels.com/photos/6845638/pexels-photo-6845638.jpeg?auto=compress\u0026cs=tinysrgb\u0026dpr=1\u0026fit=crop\u0026h=200\u0026w=280"},"liked":false,"alt":"A
        fluffy white rabbit resting on a cozy bed with a relaxed human nearby, indoors."},{"id":326012,"width":3456,"height":5184,"url":"https://www.pexels.com/photo/close-up-of-rabbit-on-field-326012/","photographer":"Pixabay","photographer_url":"https://www.pexels.com/@pixabay","photographer_id":2659,"avg_color":"#656632","src":{"original":"https://images.pexels.com/photos/326012/pexels-photo-326012.jpeg","large2x":"https://images.pexels.com/photos/326012/pexels-photo-326012.jpeg?auto=compress\u0026cs=tinysrgb\u0026dpr=2\u0026h=650\u0026w=940","large":"https://images.pexels.com/photos/326012/pexels-photo-326012.jpeg?auto=compress\u0026cs=tinysrgb\u0026h=650\u0026w=940","medium":"https://images.pexels.com/photos/326012/pexels-photo-326012.jpeg?auto=compress\u0026cs=tinysrgb\u0026h=350","small":"https://images.pexels.com/photos/326012/pexels-photo-326012.jpeg?auto=compress\u0026cs=tinysrgb\u0026h=130","portrait":"https://images.pexels.com/photos/326012/pexels-photo-326012.jpeg?auto=compress\u0026cs=tinysrgb\u0026fit=crop\u0026h=1200\u0026w=800","landscape":"https://images.pexels.com/photos/326012/pexels-photo-326012.jpeg?auto=compress\u0026cs=tinysrgb\u0026fit=crop\u0026h=627\u0026w=1200","tiny":"https://images.pexels.com/photos/326012/pexels-photo-326012.jpeg?auto=compress\u0026cs=tinysrgb\u0026dpr=1\u0026fit=crop\u0026h=200\u0026w=280"},"liked":false,"alt":"Close-up
        of a cute rabbit sitting on grass outdoors, showcasing its furry features."},{"id":247373,"width":2201,"height":1467,"url":"https://www.pexels.com/photo/close-up-of-rabbit-on-field-247373/","photographer":"Pixabay","photographer_url":"https://www.pexels.com/@pixabay","photographer_id":2659,"avg_color":"#6C6C1A","src":{"original":"https://images.pexels.com/photos/247373/pexels-photo-247373.jpeg","large2x":"https://images.pexels.com/photos/247373/pexels-photo-247373.jpeg?auto=compress\u0026cs=tinysrgb\u0026dpr=2\u0026h=650\u0026w=940","large":"https://images.pexels.com/photos/247373/pexels-photo-247373.jpeg?auto=compress\u0026cs=tinysrgb\u0026h=650\u0026w=940","medium":"https://images.pexels.com/photos/247373/pexels-photo-247373.jpeg?auto=compress\u0026cs=tinysrgb\u0026h=350","small":"https://images.pexels.com/photos/247373/pexels-photo-247373.jpeg?auto=compress\u0026cs=tinysrgb\u0026h=130","portrait":"https://images.pexels.com/photos/247373/pexels-photo-247373.jpeg?auto=compress\u0026cs=tinysrgb\u0026fit=crop\u0026h=1200\u0026w=800","landscape":"https://images.pexels.com/photos/247373/pexels-photo-247373.jpeg?auto=compress\u0026cs=tinysrgb\u0026fit=crop\u0026h=627\u0026w=1200","tiny":"https://images.pexels.com/photos/247373/pexels-photo-247373.jpeg?auto=compress\u0026cs=tinysrgb\u0026dpr=1\u0026fit=crop\u0026h=200\u0026w=280"},"liked":false,"alt":"A
        cute wild rabbit peering from the grass with a vibrant yellow backdrop, epitomizing
        summer wildlife."},{"id":4001296,"width":3456,"height":5184,"url":"https://www.pexels.com/photo/white-rabbit-on-green-grass-4001296/","photographer":"Satyabrata
        sm","photographer_url":"https://www.pexels.com/@smpicturez","photographer_id":229532,"avg_color":"#515242","src":{"original":"https://images.pexels.com/photos/4001296/pexels-photo-4001296.jpeg","large2x":"https://images.pexels.com/photos/4001296/pexels-photo-4001296.jpeg?auto=compress\u0026cs=tinysrgb\u0026dpr=2\u0026h=650\u0026w=940","large":"https://images.pexels.com/photos/4001296/pexels-photo-4001296.jpeg?auto=compress\u0026cs=tinysrgb\u0026h=650\u0026w=940","medium":"https://images.pexels.com/photos/4001296/pexels-photo-4001296.jpeg?auto=compress\u0026cs=tinysrgb\u0026h=350","small":"https://images.pexels.com/photos/4001296/pexels-photo-4001296.jpeg?auto=compress\u0026cs=tinysrgb\u0026h=130","portrait":"https://images.pexels.com/photos/4001296/pexels-photo-4001296.jpeg?auto=compress\u0026cs=tinysrgb\u0026fit=crop\u0026h=1200\u0026w=800","landscape":"https://images.pexels.com/photos/4001296/pexels-photo-4001296.jpeg?auto=compress\u0026cs=tinysrgb\u0026fit=crop\u0026h=627\u0026w=1200","tiny":"https://images.pexels.com/photos/4001296/pexels-photo-4001296.jpeg?auto=compress\u0026cs=tinysrgb\u0026dpr=1\u0026fit=crop\u0026h=200\u0026w=280"},"liked":false,"alt":"Charming
        white rabbit sitting on grass with plants in a serene outdoor environment."},{"id":104373,"width":4912,"height":2760,"url":"https://www.pexels.com/photo/beige-rabbit-resting-on-green-grasses-during-daytime-104373/","photographer":"Mike
        Bird","photographer_url":"https://www.pexels.com/@mikebirdy","photographer_id":20649,"avg_color":"#707143","src":{"original":"https://images.pexels.com/photos/104373/pexels-photo-104373.jpeg","large2x":"https://images.pexels.com/photos/104373/pexels-photo-104373.jpeg?auto=compress\u0026cs=tinysrgb\u0026dpr=2\u0026h=650\u0026w=940","large":"https://images.pexels.com/photos/104373/pexels-photo-104373.jpeg?auto=compress\u0026cs=tinysrgb\u0026h=650\u0026w=940","medium":"https://images.pexels.com/photos/104373/pexels-photo-104373.jpeg?auto=compress\u0026cs=tinysrgb\u0026h=350","small":"https://images.pexels.com/photos/104373/pexels-photo-104373.jpeg?auto=compress\u0026cs=tinysrgb\u0026h=130","portrait":"https://images.pexels.com/photos/104373/pexels-photo-104373.jpeg?auto=compress\u0026cs=tinysrgb\u0026fit=crop\u0026h=1200\u0026w=800","landscape":"https://images.pexels.com/photos/104373/pexels-photo-104373.jpeg?auto=compress\u0026cs=tinysrgb\u0026fit=crop\u0026h=627\u0026w=1200","tiny":"https://images.pexels.com/photos/104373/pexels-photo-104373.jpeg?auto=compress\u0026cs=tinysrgb\u0026dpr=1\u0026fit=crop\u0026h=200\u0026w=280"},"liked":false,"alt":"Close-up
        of a brown rabbit sitting on green grass, showcasing its curious expression."},{"id":372166,"width":2992,"height":2000,"url":"https://www.pexels.com/photo/white-and-brown-rabbit-on-green-grass-field-372166/","photographer":"Pixabay","photographer_url":"https://www.pexels.com/@pixabay","photographer_id":2659,"avg_color":"#546235","src":{"original":"https://images.pexels.com/photos/372166/pexels-photo-372166.jpeg","large2x":"https://images.pexels.com/photos/372166/pexels-photo-372166.jpeg?auto=compress\u0026cs=tinysrgb\u0026dpr=2\u0026h=650\u0026w=940","large":"https://images.pexels.com/photos/372166/pexels-photo-372166.jpeg?auto=compress\u0026cs=tinysrgb\u0026h=650\u0026w=940","medium":"https://images.pexels.com/photos/372166/pexels-photo-372166.jpeg?auto=compress\u0026cs=tinysrgb\u0026h=350","small":"https://images.pexels.com/photos/372166/pexels-photo-372166.jpeg?auto=compress\u0026cs=tinysrgb\u0026h=130","portrait":"https://images.pexels.com/photos/372166/pexels-photo-372166.jpeg?auto=compress\u0026cs=tinysrgb\u0026fit=crop\u0026h=1200\u0026w=800","landscape":"https://images.pexels.com/photos/372166/pexels-photo-372166.jpeg?auto=compress\u0026cs=tinysrgb\u0026fit=crop\u0026h=627\u0026w=1200","tiny":"https://images.pexels.com/photos/372166/pexels-photo-372166.jpeg?auto=compress\u0026cs=tinysrgb\u0026dpr=1\u0026fit=crop\u0026h=200\u0026w=280"},"liked":false,"alt":"Adorable
        brown and white bunny sitting among daisies with Easter eggs on a spring day."},{"id":255387,"width":2201,"height":1467,"url":"https://www.pexels.com/photo/close-up-of-an-animal-eating-grass-255387/","photographer":"Pixabay","photographer_url":"https://www.pexels.com/@pixabay","photographer_id":2659,"avg_color":"#658426","src":{"original":"https://images.pexels.com/photos/255387/pexels-photo-255387.jpeg","large2x":"https://images.pexels.com/photos/255387/pexels-photo-255387.jpeg?auto=compress\u0026cs=tinysrgb\u0026dpr=2\u0026h=650\u0026w=940","large":"https://images.pexels.com/photos/255387/pexels-photo-255387.jpeg?auto=compress\u0026cs=tinysrgb\u0026h=650\u0026w=940","medium":"https://images.pexels.com/photos/255387/pexels-photo-255387.jpeg?auto=compress\u0026cs=tinysrgb\u0026h=350","small":"https://images.pexels.com/photos/255387/pexels-photo-255387.jpeg?auto=compress\u0026cs=tinysrgb\u0026h=130","portrait":"https://images.pexels.com/photos/255387/pexels-photo-255387.jpeg?auto=compress\u0026cs=tinysrgb\u0026fit=crop\u0026h=1200\u0026w=800","landscape":"https://images.pexels.com/photos/255387/pexels-photo-255387.jpeg?auto=compress\u0026cs=tinysrgb\u0026fit=crop\u0026h=627\u0026w=1200","tiny":"https://images.pexels.com/photos/255387/pexels-photo-255387.jpeg?auto=compress\u0026cs=tinysrgb\u0026dpr=1\u0026fit=crop\u0026h=200\u0026w=280"},"liked":false,"alt":"A
        cute rabbit enjoying a clover snack in the lush green grass."},{"id":2285996,"width":2969,"height":3712,"url":"https://www.pexels.com/photo/selective-photography-of-grey-rabbit-2285996/","photographer":"Frank
        Cone","photographer_url":"https://www.pexels.com/@frank-cone-140140","photographer_id":140140,"avg_color":"#5F5955","src":{"original":"https://images.pexels.com/photos/2285996/pexels-photo-2285996.jpeg","large2x":"https://images.pexels.com/photos/2285996/pexels-photo-2285996.jpeg?auto=compress\u0026cs=tinysrgb\u0026dpr=2\u0026h=650\u0026w=940","large":"https://images.pexels.com/photos/2285996/pexels-photo-2285996.jpeg?auto=compress\u0026cs=tinysrgb\u0026h=650\u0026w=940","medium":"https://images.pexels.com/photos/2285996/pexels-photo-2285996.jpeg?auto=compress\u0026cs=tinysrgb\u0026h=350","small":"https://images.pexels.com/photos/2285996/pexels-photo-2285996.jpeg?auto=compress\u0026cs=tinysrgb\u0026h=130","portrait":"https://images.pexels.com/photos/2285996/pexels-photo-2285996.jpeg?auto=compress\u0026cs=tinysrgb\u0026fit=crop\u0026h=1200\u0026w=800","landscape":"https://images.pexels.com/photos/2285996/pexels-photo-2285996.jpeg?auto=compress\u0026cs=tinysrgb\u0026fit=crop\u0026h=627\u0026w=1200","tiny":"https://images.pexels.com/photos/2285996/pexels-photo-2285996.jpeg?auto=compress\u0026cs=tinysrgb\u0026dpr=1\u0026fit=crop\u0026h=200\u0026w=280"},"liked":false,"alt":"Side
        profile of a wild rabbit sitting in a natural forest setting."},{"id":1510544,"width":5893,"height":4000,"url":"https://www.pexels.com/photo/selective-focus-photography-of-white-rabbit-1510544/","photographer":"David
        Bartus","photographer_url":"https://www.pexels.com/@david-bartus-43782","photographer_id":43782,"avg_color":"#4E4640","src":{"original":"https://images.pexels.com/photos/1510544/pexels-photo-1510544.jpeg","large2x":"https://images.pexels.com/photos/1510544/pexels-photo-1510544.jpeg?auto=compress\u0026cs=tinysrgb\u0026dpr=2\u0026h=650\u0026w=940","large":"https://images.pexels.com/photos/1510544/pexels-photo-1510544.jpeg?auto=compress\u0026cs=tinysrgb\u0026h=650\u0026w=940","medium":"https://images.pexels.com/photos/1510544/pexels-photo-1510544.jpeg?auto=compress\u0026cs=tinysrgb\u0026h=350","small":"https://images.pexels.com/photos/1510544/pexels-photo-1510544.jpeg?auto=compress\u0026cs=tinysrgb\u0026h=130","portrait":"https://images.pexels.com/photos/1510544/pexels-photo-1510544.jpeg?auto=compress\u0026cs=tinysrgb\u0026fit=crop\u0026h=1200\u0026w=800","landscape":"https://images.pexels.com/photos/1510544/pexels-photo-1510544.jpeg?auto=compress\u0026cs=tinysrgb\u0026fit=crop\u0026h=627\u0026w=1200","tiny":"https://images.pexels.com/photos/1510544/pexels-photo-1510544.jpeg?auto=compress\u0026cs=tinysrgb\u0026dpr=1\u0026fit=crop\u0026h=200\u0026w=280"},"liked":false,"alt":"Adorable
        white rabbit with blue eyes nibbling on a twig in a natural setting."},{"id":2439784,"width":3578,"height":4472,"url":"https://www.pexels.com/photo/brown-rabbit-2439784/","photographer":"Frank
        Cone","photographer_url":"https://www.pexels.com/@frank-cone-140140","photographer_id":140140,"avg_color":"#8F947D","src":{"original":"https://images.pexels.com/photos/2439784/pexels-photo-2439784.jpeg","large2x":"https://images.pexels.com/photos/2439784/pexels-photo-2439784.jpeg?auto=compress\u0026cs=tinysrgb\u0026dpr=2\u0026h=650\u0026w=940","large":"https://images.pexels.com/photos/2439784/pexels-photo-2439784.jpeg?auto=compress\u0026cs=tinysrgb\u0026h=650\u0026w=940","medium":"https://images.pexels.com/photos/2439784/pexels-photo-2439784.jpeg?auto=compress\u0026cs=tinysrgb\u0026h=350","small":"https://images.pexels.com/photos/2439784/pexels-photo-2439784.jpeg?auto=compress\u0026cs=tinysrgb\u0026h=130","portrait":"https://images.pexels.com/photos/2439784/pexels-photo-2439784.jpeg?auto=compress\u0026cs=tinysrgb\u0026fit=crop\u0026h=1200\u0026w=800","landscape":"https://images.pexels.com/photos/2439784/pexels-photo-2439784.jpeg?auto=compress\u0026cs=tinysrgb\u0026fit=crop\u0026h=627\u0026w=1200","tiny":"https://images.pexels.com/photos/2439784/pexels-photo-2439784.jpeg?auto=compress\u0026cs=tinysrgb\u0026dpr=1\u0026fit=crop\u0026h=200\u0026w=280"},"liked":false,"alt":"A
        cute wild rabbit sitting on the grass in a natural outdoor setting."},{"id":583676,"width":5184,"height":3719,"url":"https://www.pexels.com/photo/gray-rabbit-583676/","photographer":"Toni
        Cuenca","photographer_url":"https://www.pexels.com/@ifreestock","photographer_id":133446,"avg_color":"#9CA5B4","src":{"original":"https://images.pexels.com/photos/583676/pexels-photo-583676.jpeg","large2x":"https://images.pexels.com/photos/583676/pexels-photo-583676.jpeg?auto=compress\u0026cs=tinysrgb\u0026dpr=2\u0026h=650\u0026w=940","large":"https://images.pexels.com/photos/583676/pexels-photo-583676.jpeg?auto=compress\u0026cs=tinysrgb\u0026h=650\u0026w=940","medium":"https://images.pexels.com/photos/583676/pexels-photo-583676.jpeg?auto=compress\u0026cs=tinysrgb\u0026h=350","small":"https://images.pexels.com/photos/583676/pexels-photo-583676.jpeg?auto=compress\u0026cs=tinysrgb\u0026h=130","portrait":"https://images.pexels.com/photos/583676/pexels-photo-583676.jpeg?auto=compress\u0026cs=tinysrgb\u0026fit=crop\u0026h=1200\u0026w=800","landscape":"https://images.pexels.com/photos/583676/pexels-photo-583676.jpeg?auto=compress\u0026cs=tinysrgb\u0026fit=crop\u0026h=627\u0026w=1200","tiny":"https://images.pexels.com/photos/583676/pexels-photo-583676.jpeg?auto=compress\u0026cs=tinysrgb\u0026dpr=1\u0026fit=crop\u0026h=200\u0026w=280"},"liked":false,"alt":"Charming
        fluffy grey rabbit sitting against a light grey backdrop in a studio setting."},{"id":3820509,"width":3091,"height":4327,"url":"https://www.pexels.com/photo/white-and-black-rabbit-on-gray-textile-3820509/","photographer":"Mati
        Mango","photographer_url":"https://www.pexels.com/@mati","photographer_id":1245020,"avg_color":"#83817F","src":{"original":"https://images.pexels.com/photos/3820509/pexels-photo-3820509.jpeg","large2x":"https://images.pexels.com/photos/3820509/pexels-photo-3820509.jpeg?auto=compress\u0026cs=tinysrgb\u0026dpr=2\u0026h=650\u0026w=940","large":"https://images.pexels.com/photos/3820509/pexels-photo-3820509.jpeg?auto=compress\u0026cs=tinysrgb\u0026h=650\u0026w=940","medium":"https://images.pexels.com/photos/3820509/pexels-photo-3820509.jpeg?auto=compress\u0026cs=tinysrgb\u0026h=350","small":"https://images.pexels.com/photos/3820509/pexels-photo-3820509.jpeg?auto=compress\u0026cs=tinysrgb\u0026h=130","portrait":"https://images.pexels.com/photos/3820509/pexels-photo-3820509.jpeg?auto=compress\u0026cs=tinysrgb\u0026fit=crop\u0026h=1200\u0026w=800","landscape":"https://images.pexels.com/photos/3820509/pexels-photo-3820509.jpeg?auto=compress\u0026cs=tinysrgb\u0026fit=crop\u0026h=627\u0026w=1200","tiny":"https://images.pexels.com/photos/3820509/pexels-photo-3820509.jpeg?auto=compress\u0026cs=tinysrgb\u0026dpr=1\u0026fit=crop\u0026h=200\u0026w=280"},"liked":false,"alt":"Charming
        close-up of a black and white pet bunny sitting on a soft gray fabric."},{"id":383557,"width":6000,"height":4000,"url":"https://www.pexels.com/photo/brown-rabbit-figurine-383557/","photographer":"Mike
        Bird","photographer_url":"https://www.pexels.com/@mikebirdy","photographer_id":20649,"avg_color":"#4B6E1E","src":{"original":"https://images.pexels.com/photos/383557/pexels-photo-383557.jpeg","large2x":"https://images.pexels.com/photos/383557/pexels-photo-383557.jpeg?auto=compress\u0026cs=tinysrgb\u0026dpr=2\u0026h=650\u0026w=940","large":"https://images.pexels.com/photos/383557/pexels-photo-383557.jpeg?auto=compress\u0026cs=tinysrgb\u0026h=650\u0026w=940","medium":"https://images.pexels.com/photos/383557/pexels-photo-383557.jpeg?auto=compress\u0026cs=tinysrgb\u0026h=350","small":"https://images.pexels.com/photos/383557/pexels-photo-383557.jpeg?auto=compress\u0026cs=tinysrgb\u0026h=130","portrait":"https://images.pexels.com/photos/383557/pexels-photo-383557.jpeg?auto=compress\u0026cs=tinysrgb\u0026fit=crop\u0026h=1200\u0026w=800","landscape":"https://images.pexels.com/photos/383557/pexels-photo-383557.jpeg?auto=compress\u0026cs=tinysrgb\u0026fit=crop\u0026h=627\u0026w=1200","tiny":"https://images.pexels.com/photos/383557/pexels-photo-383557.jpeg?auto=compress\u0026cs=tinysrgb\u0026dpr=1\u0026fit=crop\u0026h=200\u0026w=280"},"liked":false,"alt":"Adorable
        brown rabbit nestled among vibrant green plants, showcasing nature''s beauty."},{"id":1228439,"width":5472,"height":3648,"url":"https://www.pexels.com/photo/photo-of-black-rabbit-1228439/","photographer":"Maria
        Tyutina","photographer_url":"https://www.pexels.com/@mtyutina","photographer_id":68736,"avg_color":"#828D64","src":{"original":"https://images.pexels.com/photos/1228439/pexels-photo-1228439.jpeg","large2x":"https://images.pexels.com/photos/1228439/pexels-photo-1228439.jpeg?auto=compress\u0026cs=tinysrgb\u0026dpr=2\u0026h=650\u0026w=940","large":"https://images.pexels.com/photos/1228439/pexels-photo-1228439.jpeg?auto=compress\u0026cs=tinysrgb\u0026h=650\u0026w=940","medium":"https://images.pexels.com/photos/1228439/pexels-photo-1228439.jpeg?auto=compress\u0026cs=tinysrgb\u0026h=350","small":"https://images.pexels.com/photos/1228439/pexels-photo-1228439.jpeg?auto=compress\u0026cs=tinysrgb\u0026h=130","portrait":"https://images.pexels.com/photos/1228439/pexels-photo-1228439.jpeg?auto=compress\u0026cs=tinysrgb\u0026fit=crop\u0026h=1200\u0026w=800","landscape":"https://images.pexels.com/photos/1228439/pexels-photo-1228439.jpeg?auto=compress\u0026cs=tinysrgb\u0026fit=crop\u0026h=627\u0026w=1200","tiny":"https://images.pexels.com/photos/1228439/pexels-photo-1228439.jpeg?auto=compress\u0026cs=tinysrgb\u0026dpr=1\u0026fit=crop\u0026h=200\u0026w=280"},"liked":false,"alt":"A
        black rabbit sits calmly in a sunlit meadow, surrounded by lush greenery."}],"total_results":2511,"next_page":"https://api.pexels.com/v1/search/?page=2\u0026per_page=15\u0026query=Rabbit"}'
  recorded_at: Tue, 26 Nov 2024 04:05:21 GMT
recorded_with: VCR 6.3.1
