---
http_interactions:
- request:
    method: get
    uri: https://api.pexels.com/v1/search?query=Rabbit
    body:
      encoding: US-ASCII
      string: ''
    headers:
      Authorization:
      - "<PEXEL_API_KEY>"
      User-Agent:
      - Faraday v2.12.0
      Accept-Encoding:
      - gzip;q=1.0,deflate;q=0.6,identity;q=0.3
      Accept:
      - "*/*"
  response:
    status:
      code: 200
      message: OK
    headers:
      Date:
      - Mon, 04 Nov 2024 02:32:26 GMT
      Content-Type:
      - application/json; charset=utf-8
      Transfer-Encoding:
      - chunked
      Connection:
      - keep-alive
      Cf-Ray:
      - 8dd1318d4a7ce749-DEN
      Cf-Cache-Status:
      - MISS
      Access-Control-Allow-Origin:
      - "*"
      Cache-Control:
      - max-age=86400
      Etag:
      - W/"c534e56862758e285edd5064078e7fa1"
      Expires:
      - Tue, 05 Nov 2024 02:32:26 GMT
      Access-Control-Allow-Headers:
      - Accept, Content-Type, Content-Length, Accept-Encoding, Authorization, User-Agent
      X-Frame-Options:
      - SAMEORIGIN
      X-Ratelimit-Limit:
      - '25000'
      X-Ratelimit-Remaining:
      - '24584'
      X-Ratelimit-Reset:
      - '1730743922'
      X-Request-Id:
      - eec308b4-459c-4fb1-8998-b501ac861ba9
      X-Runtime:
      - '0.098196'
      Set-Cookie:
      - __cf_bm=0oLs8qqUGcULhNlnyXVJQOMRIiFLvvMmENx5HDwVrn4-1730687546-1.0.1.1-uQtr_.vv7Db6UXKxXdmdEEHCFWCtAwILkfFp4LKUX7iWGJO7gRh3T83CeS_POGfPLUfS7GDUzL_i3vvKPwsQVA;
        path=/; expires=Mon, 04-Nov-24 03:02:26 GMT; domain=.pexels.com; HttpOnly;
        Secure; SameSite=None
      - _cfuvid=CFpkFkHJ_YmPxO4c4LWm2p.kKcKeUjqp3RJXbP8FScA-1730687546719-0.0.1.1-604800000;
        path=/; domain=.pexels.com; HttpOnly; Secure; SameSite=None
      Vary:
      - Accept-Encoding
      Server:
      - cloudflare
      Alt-Svc:
      - h3=":443"; ma=86400
    body:
      encoding: UTF-8
      string: '{"page":1,"per_page":15,"photos":[{"id":6618592,"width":3024,"height":4032,"url":"https://www.pexels.com/photo/crop-woman-with-rabbit-and-christmas-decorations-6618592/","photographer":"Mariam
        Antadze","photographer_url":"https://www.pexels.com/@sunsetoned","photographer_id":3838865,"avg_color":"#8B857F","src":{"original":"https://images.pexels.com/photos/6618592/pexels-photo-6618592.jpeg","large2x":"https://images.pexels.com/photos/6618592/pexels-photo-6618592.jpeg?auto=compress\u0026cs=tinysrgb\u0026dpr=2\u0026h=650\u0026w=940","large":"https://images.pexels.com/photos/6618592/pexels-photo-6618592.jpeg?auto=compress\u0026cs=tinysrgb\u0026h=650\u0026w=940","medium":"https://images.pexels.com/photos/6618592/pexels-photo-6618592.jpeg?auto=compress\u0026cs=tinysrgb\u0026h=350","small":"https://images.pexels.com/photos/6618592/pexels-photo-6618592.jpeg?auto=compress\u0026cs=tinysrgb\u0026h=130","portrait":"https://images.pexels.com/photos/6618592/pexels-photo-6618592.jpeg?auto=compress\u0026cs=tinysrgb\u0026fit=crop\u0026h=1200\u0026w=800","landscape":"https://images.pexels.com/photos/6618592/pexels-photo-6618592.jpeg?auto=compress\u0026cs=tinysrgb\u0026fit=crop\u0026h=627\u0026w=1200","tiny":"https://images.pexels.com/photos/6618592/pexels-photo-6618592.jpeg?auto=compress\u0026cs=tinysrgb\u0026dpr=1\u0026fit=crop\u0026h=200\u0026w=280"},"liked":false,"alt":"Top
        view of unrecognizable female in sweater sitting with cute rabbit during holiday
        on crumpled textile with Christmas baubles and tinsel"},{"id":6845638,"width":5478,"height":3652,"url":"https://www.pexels.com/photo/a-person-holding-a-white-rabbit-6845638/","photographer":"Tima
        Miroshnichenko","photographer_url":"https://www.pexels.com/@tima-miroshnichenko","photographer_id":3088726,"avg_color":"#A49A92","src":{"original":"https://images.pexels.com/photos/6845638/pexels-photo-6845638.jpeg","large2x":"https://images.pexels.com/photos/6845638/pexels-photo-6845638.jpeg?auto=compress\u0026cs=tinysrgb\u0026dpr=2\u0026h=650\u0026w=940","large":"https://images.pexels.com/photos/6845638/pexels-photo-6845638.jpeg?auto=compress\u0026cs=tinysrgb\u0026h=650\u0026w=940","medium":"https://images.pexels.com/photos/6845638/pexels-photo-6845638.jpeg?auto=compress\u0026cs=tinysrgb\u0026h=350","small":"https://images.pexels.com/photos/6845638/pexels-photo-6845638.jpeg?auto=compress\u0026cs=tinysrgb\u0026h=130","portrait":"https://images.pexels.com/photos/6845638/pexels-photo-6845638.jpeg?auto=compress\u0026cs=tinysrgb\u0026fit=crop\u0026h=1200\u0026w=800","landscape":"https://images.pexels.com/photos/6845638/pexels-photo-6845638.jpeg?auto=compress\u0026cs=tinysrgb\u0026fit=crop\u0026h=627\u0026w=1200","tiny":"https://images.pexels.com/photos/6845638/pexels-photo-6845638.jpeg?auto=compress\u0026cs=tinysrgb\u0026dpr=1\u0026fit=crop\u0026h=200\u0026w=280"},"liked":false,"alt":"A
        Person Holding a White Rabbit "},{"id":326012,"width":3456,"height":5184,"url":"https://www.pexels.com/photo/close-up-of-rabbit-on-field-326012/","photographer":"Pixabay","photographer_url":"https://www.pexels.com/@pixabay","photographer_id":2659,"avg_color":"#656632","src":{"original":"https://images.pexels.com/photos/326012/pexels-photo-326012.jpeg","large2x":"https://images.pexels.com/photos/326012/pexels-photo-326012.jpeg?auto=compress\u0026cs=tinysrgb\u0026dpr=2\u0026h=650\u0026w=940","large":"https://images.pexels.com/photos/326012/pexels-photo-326012.jpeg?auto=compress\u0026cs=tinysrgb\u0026h=650\u0026w=940","medium":"https://images.pexels.com/photos/326012/pexels-photo-326012.jpeg?auto=compress\u0026cs=tinysrgb\u0026h=350","small":"https://images.pexels.com/photos/326012/pexels-photo-326012.jpeg?auto=compress\u0026cs=tinysrgb\u0026h=130","portrait":"https://images.pexels.com/photos/326012/pexels-photo-326012.jpeg?auto=compress\u0026cs=tinysrgb\u0026fit=crop\u0026h=1200\u0026w=800","landscape":"https://images.pexels.com/photos/326012/pexels-photo-326012.jpeg?auto=compress\u0026cs=tinysrgb\u0026fit=crop\u0026h=627\u0026w=1200","tiny":"https://images.pexels.com/photos/326012/pexels-photo-326012.jpeg?auto=compress\u0026cs=tinysrgb\u0026dpr=1\u0026fit=crop\u0026h=200\u0026w=280"},"liked":false,"alt":"Close-up
        of Rabbit on Field"},{"id":247373,"width":2201,"height":1467,"url":"https://www.pexels.com/photo/close-up-of-rabbit-on-field-247373/","photographer":"Pixabay","photographer_url":"https://www.pexels.com/@pixabay","photographer_id":2659,"avg_color":"#6C6C1A","src":{"original":"https://images.pexels.com/photos/247373/pexels-photo-247373.jpeg","large2x":"https://images.pexels.com/photos/247373/pexels-photo-247373.jpeg?auto=compress\u0026cs=tinysrgb\u0026dpr=2\u0026h=650\u0026w=940","large":"https://images.pexels.com/photos/247373/pexels-photo-247373.jpeg?auto=compress\u0026cs=tinysrgb\u0026h=650\u0026w=940","medium":"https://images.pexels.com/photos/247373/pexels-photo-247373.jpeg?auto=compress\u0026cs=tinysrgb\u0026h=350","small":"https://images.pexels.com/photos/247373/pexels-photo-247373.jpeg?auto=compress\u0026cs=tinysrgb\u0026h=130","portrait":"https://images.pexels.com/photos/247373/pexels-photo-247373.jpeg?auto=compress\u0026cs=tinysrgb\u0026fit=crop\u0026h=1200\u0026w=800","landscape":"https://images.pexels.com/photos/247373/pexels-photo-247373.jpeg?auto=compress\u0026cs=tinysrgb\u0026fit=crop\u0026h=627\u0026w=1200","tiny":"https://images.pexels.com/photos/247373/pexels-photo-247373.jpeg?auto=compress\u0026cs=tinysrgb\u0026dpr=1\u0026fit=crop\u0026h=200\u0026w=280"},"liked":false,"alt":"Close-up
        of Rabbit on Field"},{"id":4001296,"width":3456,"height":5184,"url":"https://www.pexels.com/photo/white-rabbit-on-green-grass-4001296/","photographer":"Satyabrata
        sm","photographer_url":"https://www.pexels.com/@smpicturez","photographer_id":229532,"avg_color":"#515242","src":{"original":"https://images.pexels.com/photos/4001296/pexels-photo-4001296.jpeg","large2x":"https://images.pexels.com/photos/4001296/pexels-photo-4001296.jpeg?auto=compress\u0026cs=tinysrgb\u0026dpr=2\u0026h=650\u0026w=940","large":"https://images.pexels.com/photos/4001296/pexels-photo-4001296.jpeg?auto=compress\u0026cs=tinysrgb\u0026h=650\u0026w=940","medium":"https://images.pexels.com/photos/4001296/pexels-photo-4001296.jpeg?auto=compress\u0026cs=tinysrgb\u0026h=350","small":"https://images.pexels.com/photos/4001296/pexels-photo-4001296.jpeg?auto=compress\u0026cs=tinysrgb\u0026h=130","portrait":"https://images.pexels.com/photos/4001296/pexels-photo-4001296.jpeg?auto=compress\u0026cs=tinysrgb\u0026fit=crop\u0026h=1200\u0026w=800","landscape":"https://images.pexels.com/photos/4001296/pexels-photo-4001296.jpeg?auto=compress\u0026cs=tinysrgb\u0026fit=crop\u0026h=627\u0026w=1200","tiny":"https://images.pexels.com/photos/4001296/pexels-photo-4001296.jpeg?auto=compress\u0026cs=tinysrgb\u0026dpr=1\u0026fit=crop\u0026h=200\u0026w=280"},"liked":false,"alt":"White
        Rabbit On Green Grass"},{"id":104373,"width":4912,"height":2760,"url":"https://www.pexels.com/photo/beige-rabbit-resting-on-green-grasses-during-daytime-104373/","photographer":"Mike
        Bird","photographer_url":"https://www.pexels.com/@mikebirdy","photographer_id":20649,"avg_color":"#707143","src":{"original":"https://images.pexels.com/photos/104373/pexels-photo-104373.jpeg","large2x":"https://images.pexels.com/photos/104373/pexels-photo-104373.jpeg?auto=compress\u0026cs=tinysrgb\u0026dpr=2\u0026h=650\u0026w=940","large":"https://images.pexels.com/photos/104373/pexels-photo-104373.jpeg?auto=compress\u0026cs=tinysrgb\u0026h=650\u0026w=940","medium":"https://images.pexels.com/photos/104373/pexels-photo-104373.jpeg?auto=compress\u0026cs=tinysrgb\u0026h=350","small":"https://images.pexels.com/photos/104373/pexels-photo-104373.jpeg?auto=compress\u0026cs=tinysrgb\u0026h=130","portrait":"https://images.pexels.com/photos/104373/pexels-photo-104373.jpeg?auto=compress\u0026cs=tinysrgb\u0026fit=crop\u0026h=1200\u0026w=800","landscape":"https://images.pexels.com/photos/104373/pexels-photo-104373.jpeg?auto=compress\u0026cs=tinysrgb\u0026fit=crop\u0026h=627\u0026w=1200","tiny":"https://images.pexels.com/photos/104373/pexels-photo-104373.jpeg?auto=compress\u0026cs=tinysrgb\u0026dpr=1\u0026fit=crop\u0026h=200\u0026w=280"},"liked":false,"alt":"Beige
        Rabbit Resting on Green Grasses during Daytime"},{"id":372166,"width":2992,"height":2000,"url":"https://www.pexels.com/photo/white-and-brown-rabbit-on-green-grass-field-372166/","photographer":"Pixabay","photographer_url":"https://www.pexels.com/@pixabay","photographer_id":2659,"avg_color":"#546235","src":{"original":"https://images.pexels.com/photos/372166/pexels-photo-372166.jpeg","large2x":"https://images.pexels.com/photos/372166/pexels-photo-372166.jpeg?auto=compress\u0026cs=tinysrgb\u0026dpr=2\u0026h=650\u0026w=940","large":"https://images.pexels.com/photos/372166/pexels-photo-372166.jpeg?auto=compress\u0026cs=tinysrgb\u0026h=650\u0026w=940","medium":"https://images.pexels.com/photos/372166/pexels-photo-372166.jpeg?auto=compress\u0026cs=tinysrgb\u0026h=350","small":"https://images.pexels.com/photos/372166/pexels-photo-372166.jpeg?auto=compress\u0026cs=tinysrgb\u0026h=130","portrait":"https://images.pexels.com/photos/372166/pexels-photo-372166.jpeg?auto=compress\u0026cs=tinysrgb\u0026fit=crop\u0026h=1200\u0026w=800","landscape":"https://images.pexels.com/photos/372166/pexels-photo-372166.jpeg?auto=compress\u0026cs=tinysrgb\u0026fit=crop\u0026h=627\u0026w=1200","tiny":"https://images.pexels.com/photos/372166/pexels-photo-372166.jpeg?auto=compress\u0026cs=tinysrgb\u0026dpr=1\u0026fit=crop\u0026h=200\u0026w=280"},"liked":false,"alt":"White
        and Brown Rabbit on Green Grass Field"},{"id":255387,"width":2201,"height":1467,"url":"https://www.pexels.com/photo/close-up-of-an-animal-eating-grass-255387/","photographer":"Pixabay","photographer_url":"https://www.pexels.com/@pixabay","photographer_id":2659,"avg_color":"#658426","src":{"original":"https://images.pexels.com/photos/255387/pexels-photo-255387.jpeg","large2x":"https://images.pexels.com/photos/255387/pexels-photo-255387.jpeg?auto=compress\u0026cs=tinysrgb\u0026dpr=2\u0026h=650\u0026w=940","large":"https://images.pexels.com/photos/255387/pexels-photo-255387.jpeg?auto=compress\u0026cs=tinysrgb\u0026h=650\u0026w=940","medium":"https://images.pexels.com/photos/255387/pexels-photo-255387.jpeg?auto=compress\u0026cs=tinysrgb\u0026h=350","small":"https://images.pexels.com/photos/255387/pexels-photo-255387.jpeg?auto=compress\u0026cs=tinysrgb\u0026h=130","portrait":"https://images.pexels.com/photos/255387/pexels-photo-255387.jpeg?auto=compress\u0026cs=tinysrgb\u0026fit=crop\u0026h=1200\u0026w=800","landscape":"https://images.pexels.com/photos/255387/pexels-photo-255387.jpeg?auto=compress\u0026cs=tinysrgb\u0026fit=crop\u0026h=627\u0026w=1200","tiny":"https://images.pexels.com/photos/255387/pexels-photo-255387.jpeg?auto=compress\u0026cs=tinysrgb\u0026dpr=1\u0026fit=crop\u0026h=200\u0026w=280"},"liked":false,"alt":"Close-up
        of an Animal Eating Grass"},{"id":2285996,"width":2969,"height":3712,"url":"https://www.pexels.com/photo/selective-photography-of-grey-rabbit-2285996/","photographer":"Frank
        Cone","photographer_url":"https://www.pexels.com/@frank-cone-140140","photographer_id":140140,"avg_color":"#5F5955","src":{"original":"https://images.pexels.com/photos/2285996/pexels-photo-2285996.jpeg","large2x":"https://images.pexels.com/photos/2285996/pexels-photo-2285996.jpeg?auto=compress\u0026cs=tinysrgb\u0026dpr=2\u0026h=650\u0026w=940","large":"https://images.pexels.com/photos/2285996/pexels-photo-2285996.jpeg?auto=compress\u0026cs=tinysrgb\u0026h=650\u0026w=940","medium":"https://images.pexels.com/photos/2285996/pexels-photo-2285996.jpeg?auto=compress\u0026cs=tinysrgb\u0026h=350","small":"https://images.pexels.com/photos/2285996/pexels-photo-2285996.jpeg?auto=compress\u0026cs=tinysrgb\u0026h=130","portrait":"https://images.pexels.com/photos/2285996/pexels-photo-2285996.jpeg?auto=compress\u0026cs=tinysrgb\u0026fit=crop\u0026h=1200\u0026w=800","landscape":"https://images.pexels.com/photos/2285996/pexels-photo-2285996.jpeg?auto=compress\u0026cs=tinysrgb\u0026fit=crop\u0026h=627\u0026w=1200","tiny":"https://images.pexels.com/photos/2285996/pexels-photo-2285996.jpeg?auto=compress\u0026cs=tinysrgb\u0026dpr=1\u0026fit=crop\u0026h=200\u0026w=280"},"liked":false,"alt":"Selective
        Photography Of Grey Rabbit"},{"id":1510544,"width":5893,"height":4000,"url":"https://www.pexels.com/photo/selective-focus-photography-of-white-rabbit-1510544/","photographer":"David
        Bartus","photographer_url":"https://www.pexels.com/@david-bartus-43782","photographer_id":43782,"avg_color":"#4E4640","src":{"original":"https://images.pexels.com/photos/1510544/pexels-photo-1510544.jpeg","large2x":"https://images.pexels.com/photos/1510544/pexels-photo-1510544.jpeg?auto=compress\u0026cs=tinysrgb\u0026dpr=2\u0026h=650\u0026w=940","large":"https://images.pexels.com/photos/1510544/pexels-photo-1510544.jpeg?auto=compress\u0026cs=tinysrgb\u0026h=650\u0026w=940","medium":"https://images.pexels.com/photos/1510544/pexels-photo-1510544.jpeg?auto=compress\u0026cs=tinysrgb\u0026h=350","small":"https://images.pexels.com/photos/1510544/pexels-photo-1510544.jpeg?auto=compress\u0026cs=tinysrgb\u0026h=130","portrait":"https://images.pexels.com/photos/1510544/pexels-photo-1510544.jpeg?auto=compress\u0026cs=tinysrgb\u0026fit=crop\u0026h=1200\u0026w=800","landscape":"https://images.pexels.com/photos/1510544/pexels-photo-1510544.jpeg?auto=compress\u0026cs=tinysrgb\u0026fit=crop\u0026h=627\u0026w=1200","tiny":"https://images.pexels.com/photos/1510544/pexels-photo-1510544.jpeg?auto=compress\u0026cs=tinysrgb\u0026dpr=1\u0026fit=crop\u0026h=200\u0026w=280"},"liked":false,"alt":"Selective
        Focus Photography Of White Rabbit"},{"id":2439784,"width":3578,"height":4472,"url":"https://www.pexels.com/photo/brown-rabbit-2439784/","photographer":"Frank
        Cone","photographer_url":"https://www.pexels.com/@frank-cone-140140","photographer_id":140140,"avg_color":"#8F947D","src":{"original":"https://images.pexels.com/photos/2439784/pexels-photo-2439784.jpeg","large2x":"https://images.pexels.com/photos/2439784/pexels-photo-2439784.jpeg?auto=compress\u0026cs=tinysrgb\u0026dpr=2\u0026h=650\u0026w=940","large":"https://images.pexels.com/photos/2439784/pexels-photo-2439784.jpeg?auto=compress\u0026cs=tinysrgb\u0026h=650\u0026w=940","medium":"https://images.pexels.com/photos/2439784/pexels-photo-2439784.jpeg?auto=compress\u0026cs=tinysrgb\u0026h=350","small":"https://images.pexels.com/photos/2439784/pexels-photo-2439784.jpeg?auto=compress\u0026cs=tinysrgb\u0026h=130","portrait":"https://images.pexels.com/photos/2439784/pexels-photo-2439784.jpeg?auto=compress\u0026cs=tinysrgb\u0026fit=crop\u0026h=1200\u0026w=800","landscape":"https://images.pexels.com/photos/2439784/pexels-photo-2439784.jpeg?auto=compress\u0026cs=tinysrgb\u0026fit=crop\u0026h=627\u0026w=1200","tiny":"https://images.pexels.com/photos/2439784/pexels-photo-2439784.jpeg?auto=compress\u0026cs=tinysrgb\u0026dpr=1\u0026fit=crop\u0026h=200\u0026w=280"},"liked":false,"alt":"Brown
        Rabbit"},{"id":583676,"width":5184,"height":3719,"url":"https://www.pexels.com/photo/gray-rabbit-583676/","photographer":"Toni
        Cuenca","photographer_url":"https://www.pexels.com/@ifreestock","photographer_id":133446,"avg_color":"#9CA5B4","src":{"original":"https://images.pexels.com/photos/583676/pexels-photo-583676.jpeg","large2x":"https://images.pexels.com/photos/583676/pexels-photo-583676.jpeg?auto=compress\u0026cs=tinysrgb\u0026dpr=2\u0026h=650\u0026w=940","large":"https://images.pexels.com/photos/583676/pexels-photo-583676.jpeg?auto=compress\u0026cs=tinysrgb\u0026h=650\u0026w=940","medium":"https://images.pexels.com/photos/583676/pexels-photo-583676.jpeg?auto=compress\u0026cs=tinysrgb\u0026h=350","small":"https://images.pexels.com/photos/583676/pexels-photo-583676.jpeg?auto=compress\u0026cs=tinysrgb\u0026h=130","portrait":"https://images.pexels.com/photos/583676/pexels-photo-583676.jpeg?auto=compress\u0026cs=tinysrgb\u0026fit=crop\u0026h=1200\u0026w=800","landscape":"https://images.pexels.com/photos/583676/pexels-photo-583676.jpeg?auto=compress\u0026cs=tinysrgb\u0026fit=crop\u0026h=627\u0026w=1200","tiny":"https://images.pexels.com/photos/583676/pexels-photo-583676.jpeg?auto=compress\u0026cs=tinysrgb\u0026dpr=1\u0026fit=crop\u0026h=200\u0026w=280"},"liked":false,"alt":"Gray
        Rabbit"},{"id":3820509,"width":3091,"height":4327,"url":"https://www.pexels.com/photo/white-and-black-rabbit-on-gray-textile-3820509/","photographer":"Mati
        Mango","photographer_url":"https://www.pexels.com/@mati","photographer_id":1245020,"avg_color":"#83817F","src":{"original":"https://images.pexels.com/photos/3820509/pexels-photo-3820509.jpeg","large2x":"https://images.pexels.com/photos/3820509/pexels-photo-3820509.jpeg?auto=compress\u0026cs=tinysrgb\u0026dpr=2\u0026h=650\u0026w=940","large":"https://images.pexels.com/photos/3820509/pexels-photo-3820509.jpeg?auto=compress\u0026cs=tinysrgb\u0026h=650\u0026w=940","medium":"https://images.pexels.com/photos/3820509/pexels-photo-3820509.jpeg?auto=compress\u0026cs=tinysrgb\u0026h=350","small":"https://images.pexels.com/photos/3820509/pexels-photo-3820509.jpeg?auto=compress\u0026cs=tinysrgb\u0026h=130","portrait":"https://images.pexels.com/photos/3820509/pexels-photo-3820509.jpeg?auto=compress\u0026cs=tinysrgb\u0026fit=crop\u0026h=1200\u0026w=800","landscape":"https://images.pexels.com/photos/3820509/pexels-photo-3820509.jpeg?auto=compress\u0026cs=tinysrgb\u0026fit=crop\u0026h=627\u0026w=1200","tiny":"https://images.pexels.com/photos/3820509/pexels-photo-3820509.jpeg?auto=compress\u0026cs=tinysrgb\u0026dpr=1\u0026fit=crop\u0026h=200\u0026w=280"},"liked":false,"alt":"White
        and Black Rabbit on Gray Textile"},{"id":383557,"width":6000,"height":4000,"url":"https://www.pexels.com/photo/brown-rabbit-figurine-383557/","photographer":"Mike
        Bird","photographer_url":"https://www.pexels.com/@mikebirdy","photographer_id":20649,"avg_color":"#4B6E1E","src":{"original":"https://images.pexels.com/photos/383557/pexels-photo-383557.jpeg","large2x":"https://images.pexels.com/photos/383557/pexels-photo-383557.jpeg?auto=compress\u0026cs=tinysrgb\u0026dpr=2\u0026h=650\u0026w=940","large":"https://images.pexels.com/photos/383557/pexels-photo-383557.jpeg?auto=compress\u0026cs=tinysrgb\u0026h=650\u0026w=940","medium":"https://images.pexels.com/photos/383557/pexels-photo-383557.jpeg?auto=compress\u0026cs=tinysrgb\u0026h=350","small":"https://images.pexels.com/photos/383557/pexels-photo-383557.jpeg?auto=compress\u0026cs=tinysrgb\u0026h=130","portrait":"https://images.pexels.com/photos/383557/pexels-photo-383557.jpeg?auto=compress\u0026cs=tinysrgb\u0026fit=crop\u0026h=1200\u0026w=800","landscape":"https://images.pexels.com/photos/383557/pexels-photo-383557.jpeg?auto=compress\u0026cs=tinysrgb\u0026fit=crop\u0026h=627\u0026w=1200","tiny":"https://images.pexels.com/photos/383557/pexels-photo-383557.jpeg?auto=compress\u0026cs=tinysrgb\u0026dpr=1\u0026fit=crop\u0026h=200\u0026w=280"},"liked":false,"alt":"Brown
        Rabbit Figurine"},{"id":1228439,"width":5472,"height":3648,"url":"https://www.pexels.com/photo/photo-of-black-rabbit-1228439/","photographer":"Maria
        Tyutina","photographer_url":"https://www.pexels.com/@mtyutina","photographer_id":68736,"avg_color":"#828D64","src":{"original":"https://images.pexels.com/photos/1228439/pexels-photo-1228439.jpeg","large2x":"https://images.pexels.com/photos/1228439/pexels-photo-1228439.jpeg?auto=compress\u0026cs=tinysrgb\u0026dpr=2\u0026h=650\u0026w=940","large":"https://images.pexels.com/photos/1228439/pexels-photo-1228439.jpeg?auto=compress\u0026cs=tinysrgb\u0026h=650\u0026w=940","medium":"https://images.pexels.com/photos/1228439/pexels-photo-1228439.jpeg?auto=compress\u0026cs=tinysrgb\u0026h=350","small":"https://images.pexels.com/photos/1228439/pexels-photo-1228439.jpeg?auto=compress\u0026cs=tinysrgb\u0026h=130","portrait":"https://images.pexels.com/photos/1228439/pexels-photo-1228439.jpeg?auto=compress\u0026cs=tinysrgb\u0026fit=crop\u0026h=1200\u0026w=800","landscape":"https://images.pexels.com/photos/1228439/pexels-photo-1228439.jpeg?auto=compress\u0026cs=tinysrgb\u0026fit=crop\u0026h=627\u0026w=1200","tiny":"https://images.pexels.com/photos/1228439/pexels-photo-1228439.jpeg?auto=compress\u0026cs=tinysrgb\u0026dpr=1\u0026fit=crop\u0026h=200\u0026w=280"},"liked":false,"alt":"Photo
        of Black Rabbit"}],"total_results":2470,"next_page":"https://api.pexels.com/v1/search/?page=2\u0026per_page=15\u0026query=Rabbit"}'
  recorded_at: Mon, 04 Nov 2024 02:32:26 GMT
recorded_with: VCR 6.3.1
